analysis_uown
…
MIDO_location <- here::here("data","processed_data","MIDO.RDS")
NORO_location <- here::here("data","processed_data","NORO.RDS")
BICO_location <- here::here("data","processed_data","BICO.RDS")

MIDO <- readRDS(MIDO_location)
NORO <- readRDS(NORO_location)
BICO <- readRDS(BICO_location)

 _Additionally, I am going to start of by log fitting the E. coli data. This is because that data can have counts several orders of magnitude higher than the variables it is being assessed with. Therefore, model fit may be artificially bad.

MIDO %>%
  mutate_at(vars(e.coli.cfu), ~log10(.))

## # A tibble: 88 x 11
##    WSID    biological_score conductivity.uscm turbidity.ntu no3.mgL    pH
##    <chr>              <dbl>             <dbl>         <dbl>   <dbl> <dbl>
##  1 MIDO301               13                53           5       0.4  6.7 
##  2 MIDO601               25                65           7       0.6  7.2 
##  3 MIDO701               10                56           7       0.7  7.3 
##  4 MIDO801               15                89          16       1    8   
##  5 MIDO802               12                92           5       3.6  7.3 
##  6 MIDO802               16                77          25       1    6.1 
##  7 MIDO601               18                59          17.9     2.3  5.7 
##  8 MIDO802                6                79          10.9     4.7  5.9 
##  9 MIDO803                5               127           6.3     8.7  6.8 
## 10 MIDO704               22               109          29.2     5    6.05
## # ... with 78 more rows, and 5 more variables: e.coli.cfu <dbl>, month <dbl>,
## #   year <dbl>, day <dbl>, stream_ID <chr>

NORO %>%
  mutate_at(vars(e.coli.cfu), ~log10(.))

## # A tibble: 35 x 11
##    WSID    biological_score conductivity.uscm turbidity.ntu no3.mgL    pH
##    <chr>              <dbl>             <dbl>         <dbl>   <dbl> <dbl>
##  1 NORO201               21              46             8       0.6  7.2 
##  2 NORO401               22              45            11       0.6  7   
##  3 NORO503               13              54            20       0.9  7.3 
##  4 NORO601                2             685            15       5.1  6.6 
##  5 NORO602               28              44            14       0.7  7   
##  6 NORO601                1             556             9.2    23.3  6.2 
##  7 NORO503               16              65            20.3     0.3  5.5 
##  8 NORO401               31              39             6.1     0.8  6.5 
##  9 NORO503                8              55             8.5     1.1  6.3 
## 10 NORO503               15              62.5          12.5     1    6.61
## # ... with 25 more rows, and 5 more variables: e.coli.cfu <dbl>, month <dbl>,
## #   year <dbl>, day <dbl>, stream_ID <chr>

BICO %>%
  mutate_at(vars(e.coli.cfu), ~log10(.))

## # A tibble: 23 x 11
##    WSID    biological_score conductivity.uscm turbidity.ntu no3.mgL    pH
##    <chr>              <dbl>             <dbl>         <dbl>   <dbl> <dbl>
##  1 BICO102               22              83             4      0.8   7.2 
##  2 BICO201               20              41            14.9    1.3   6.3 
##  3 BICO201               22              46.5          10.2    0.2   6.56
##  4 BICO201               29              42.9          20      0.29  7.06
##  5 BICO301                7              42.9          39.1    0.13  6.76
##  6 BICO201               25              97.6           9.8    0.75  6.2 
##  7 BICO301               21              87.9           7.7    0.85  6.6 
##  8 BICO201               23              51.3           3.4    0.69  6.73
##  9 BICO201               21              54.8           2.4    0.1   6.85
## 10 BICO201               21              54.7           6.9    4.31  6.67
## # ... with 13 more rows, and 5 more variables: e.coli.cfu <dbl>, month <dbl>,
## #   year <dbl>, day <dbl>, stream_ID <chr>
…
